RCB_WWVB_LORA/V2/ICE40/WWVB_FPGA_Working_8bit_counter/8bit_counter/source/test.vcd
$date
	Wed Jun 12 15:43:19 2024
$end
$version
	Icarus Verilog
$end
$timescale
	1ps
$end
$scope module testbench $end
$var wire 1 ! input_tready $end
$var wire 1 " decimator_output_valid $end
$var wire 13 # decimator_output [12:0] $end
$var wire 1 $ data_out $end
$var wire 1 % clk_out $end
$var reg 1 & clk $end
$var reg 1 ' data_in $end
$var reg 1 ( decimator_output_ready $end
$var reg 1 ) input_tvalid $end
$var reg 6 * rate [5:0] $end
$var reg 1 + rst $end
$scope module decimator $end
$var wire 1 & clk $end
$var wire 13 , comb_reg_0 [12:0] $end
$var wire 13 - comb_reg_1 [12:0] $end
$var wire 1 ' input_tdata $end
$var wire 1 ! input_tready $end
$var wire 1 ) input_tvalid $end
$var wire 13 . int_reg_0 [12:0] $end
$var wire 13 / int_reg_1 [12:0] $end
$var wire 13 0 output_tdata [12:0] $end
$var wire 1 ( output_tready $end
$var wire 1 " output_tvalid $end
$var wire 6 1 rate [5:0] $end
$var wire 1 + rst $end
$var parameter 32 2 M $end
$var parameter 32 3 N $end
$var parameter 32 4 REG_WIDTH $end
$var parameter 32 5 RMAX $end
$var parameter 32 6 WIDTH $end
$var reg 6 7 cycle_reg [5:0] $end
$var integer 32 8 i [31:0] $end
$scope begin comb[0] $end
$var parameter 2 9 k $end
$upscope $end
$scope begin comb[1] $end
$var parameter 2 : k $end
$upscope $end
$scope begin comb[2] $end
$var parameter 3 ; k $end
$upscope $end
$scope begin integrator[0] $end
$var parameter 2 < k $end
$upscope $end
$scope begin integrator[1] $end
$var parameter 2 = k $end
$upscope $end
$scope begin integrator[2] $end
$var parameter 3 > k $end
$upscope $end
$upscope $end
$scope module serializer $end
$var wire 1 & clk $end
$var wire 13 ? data_in [12:0] $end
$var wire 1 " data_strobe $end
$var wire 1 + rst $end
$var wire 1 % clk_out $end
$var reg 6 @ bit_counter [5:0] $end
$var reg 1 A clk_out_enable $end
$var reg 1 $ data_out $end
$var reg 16 B shift_reg [15:0] $end
$upscope $end
$upscope $end
$enddefinitions $end
$comment Show the parameter values. $end
$dumpall
b10 >
b1 =
b0 <
b10 ;
b1 :
b0 9
b1 6
b100000 5
b1101 4
b11 3
b1 2
$end
#0
$dumpvars
b0 B
0A
b0 @
b0 ?
b11 8
b0 7
b11111 1
b0 0
b0 /
b0 .
b0 -
b0 ,
1+
b11111 *
0)
1(
0'
0&
0%
0$
b0 #
0"
1!
$end
#5000000000000
b1 8
1&
#10000000000000
0&
0+
#15000000000000
1&
#20000000000000
b1101111010101101 B
1"
0&
1)
1'
#25000000000000
0"
b1111111111111 .
b1 7
b10000 @
b0 8
1&
#30000000000000
b110111101010110 B
1$
1A
0&
0'
#35000000000000
b10 7
b1111111111111 /
b1111 @
1%
1&
#40000000000000
b11011110101011 B
0$
0%
0&
1'
#45000000000000
b1111111111110 .
b1111111111110 /
b11 7
b1110 @
1%
1&
#50000000000000
b1101111010101 B
1$
0%
0&
0'
#55000000000000
b100 7
b1111111111100 /
b1101 @
1%
1&
#60000000000000
b110111101010 B
0%
0&
1'
#65000000000000
b1111111111101 .
b1111111111010 /
b101 7
b1100 @
1%
1&
#70000000000000
b11011110101 B
0$
0%
0&
0'
#75000000000000
b110 7
b1111111110111 /
b1011 @
1%
1&
#80000000000000
b1101111010 B
1$
0%
0&
1'
#85000000000000
b1111111111100 .
b1111111110100 /
b111 7
b1010 @
1%
1&
#90000000000000
b110111101 B
0$
0%
0&
0'
#95000000000000
b1000 7
b1111111110000 /
b1001 @
1%
1&
#100000000000000
b11011110 B
1$
0%
0&
1'
#105000000000000
b1111111111011 .
b1111111101100 /
b1001 7
b1000 @
1%
1&
#110000000000000
b1101111 B
0$
0%
0&
0'
#115000000000000
b1010 7
b1111111100111 /
b111 @
1%
1&
#120000000000000
b110111 B
1$
0%
0&
1'
#125000000000000
b1111111111010 .
b1111111100010 /
b1011 7
b110 @
1%
1&
#130000000000000
b11011 B
0%
0&
0'
#135000000000000
b1100 7
b1111111011100 /
b101 @
1%
1&
#140000000000000
b1101 B
0%
0&
1'
#145000000000000
b1111111111001 .
b1111111010110 /
b1101 7
b100 @
1%
1&
#150000000000000
b110 B
0%
0&
0'
#155000000000000
b1110 7
b1111111001111 /
b11 @
1%
1&
#160000000000000
b11 B
0$
0%
0&
1'
#165000000000000
b1111111111000 .
b1111111001000 /
b1111 7
b10 @
1%
1&
#170000000000000
b1 B
1$
0%
0&
0'
#175000000000000
b10000 7
b1111111000000 /
b1 @
1%
1&
#180000000000000
b0 B
0%
0&
1'
#185000000000000
b1111111110111 .
b1111110111000 /
b10001 7
b0 @
1%
1&
#190000000000000
0$
0A
0%
0&
0'
#195000000000000
b10010 7
b1111110101111 /
1&
#200000000000000
0&
1'
#205000000000000
b1111111110110 .
b1111110100110 /
b10011 7
1&
#210000000000000
0&
0'
#215000000000000
b10100 7
b1111110011100 /
1&
#220000000000000
0&
1'
#225000000000000
b1111111110101 .
b1111110010010 /
b10101 7
1&
#230000000000000
0&
0'
#235000000000000
b10110 7
b1111110000111 /
1&
#240000000000000
0&
1'
#245000000000000
b1111111110100 .
b1111101111100 /
b10111 7
1&
#250000000000000
0&
0'
#255000000000000
b11000 7
b1111101110000 /
1&
#260000000000000
0&
1'
#265000000000000
b1111111110011 .
b1111101100100 /
b11001 7
1&
#270000000000000
0&
0'
#275000000000000
b11010 7
b1111101010111 /
1&
#280000000000000
0&
1'
#285000000000000
b1111111110010 .
b1111101001010 /
b11011 7
1&
#290000000000000
0&
0'
#295000000000000
b11100 7
b1111100111100 /
1&
#300000000000000
0&
1'
#305000000000000
b1111111110001 .
b1111100101110 /
b11101 7
1&
#310000000000000
0&
0'
#315000000000000
b11110 7
b1111100011111 /
1&
#320000000000000
0&
1'
#325000000000000
1"
b1111111110000 .
b1111100010000 /
b0 7
1&
#330000000000000
b1101111010101101 B
0&
0'
#335000000000000
0"
b1 7
b1011011001000 ,
b1111100000000 /
b10000 @
1&
#340000000000000
1A
b110111101010110 B
1$
0&
1'
#345000000000000
b1111111101111 .
b1111011110000 /
b10 7
b1111 @
1%
1&
#350000000000000
b11011110101011 B
0$
0%
0&
0'
#355000000000000
b11 7
b1111011011111 /
b1110 @
1%
1&
#360000000000000
b1101111010101 B
1$
0%
0&
1'
#365000000000000
b1111111101110 .
b1111011001110 /
b100 7
b1101 @
1%
1&
#370000000000000
b110111101010 B
0%
0&
0'
#375000000000000
b101 7
b1111010111100 /
b1100 @
1%
1&
#380000000000000
b11011110101 B
0$
0%
0&
1'
#385000000000000
b1111111101101 .
b1111010101010 /
b110 7
b1011 @
1%
1&
#390000000000000
b1101111010 B
1$
0%
0&
0'
#395000000000000
b111 7
b1111010010111 /
b1010 @
1%
1&
#400000000000000
b110111101 B
0$
0%
0&
1'
#405000000000000
b1111111101100 .
b1111010000100 /
b1000 7
b1001 @
1%
1&
#410000000000000
b11011110 B
1$
0%
0&
0'
#415000000000000
b1001 7
b1111001110000 /
b1000 @
1%
1&
#420000000000000
b1101111 B
0$
0%
0&
1'
#425000000000000
b1111111101011 .
b1111001011100 /
b1010 7
b111 @
1%
1&
#430000000000000
b110111 B
1$
0%
0&
0'
#435000000000000
b1011 7
b1111001000111 /
b110 @
1%
1&
#440000000000000
b11011 B
0%
0&
1'
#445000000000000
b1111111101010 .
b1111000110010 /
b1100 7
b101 @
1%
1&
#450000000000000
b1101 B
0%
0&
0'
#455000000000000
b1101 7
b1111000011100 /
b100 @
1%
1&
#460000000000000
b110 B
0%
0&
1'
#465000000000000
b1111111101001 .
b1111000000110 /
b1110 7
b11 @
1%
1&
#470000000000000
b11 B
0$
0%
0&
0'
#475000000000000
b1111 7
b1110111101111 /
b10 @
1%
1&
#480000000000000
b1 B
1$
0%
0&
1'
#485000000000000
b1111111101000 .
b1110111011000 /
b10000 7
b1 @
1%
1&
#490000000000000
b0 B
0%
0&
0'
#495000000000000
b10001 7
b1110111000000 /
b0 @
1%
1&
#500000000000000
0A
0$
0%
0&
1'
#505000000000000
b1111111100111 .
b1110110101000 /
b10010 7
1&
#510000000000000
0&
0'
#515000000000000
b10011 7
b1110110001111 /
1&
#520000000000000
0&
1'
#525000000000000
b1111111100110 .
b1110101110110 /
b10100 7
1&
#530000000000000
0&
0'
#535000000000000
b10101 7
b1110101011100 /
1&
#540000000000000
0&
1'
#545000000000000
b1111111100101 .
b1110101000010 /
b10110 7
1&
#550000000000000
0&
0'
#555000000000000
b10111 7
b1110100100111 /
1&
#560000000000000
0&
1'
#565000000000000
b1111111100100 .
b1110100001100 /
b11000 7
1&
#570000000000000
0&
0'
#575000000000000
b11001 7
b1110011110000 /
1&
#580000000000000
0&
1'
#585000000000000
b1111111100011 .
b1110011010100 /
b11010 7
1&
#590000000000000
0&
0'
#595000000000000
b11011 7
b1110010110111 /
1&
#600000000000000
0&
1'
#605000000000000
b1111111100010 .
b1110010011010 /
b11100 7
1&
#610000000000000
0&
0'
#615000000000000
b11101 7
b1110001111100 /
1&
#620000000000000
0&
1'
#625000000000000
b1111111100001 .
b1110001011110 /
b11110 7
1&
#630000000000000
0&
0'
#635000000000000
1"
b0 7
b1110000111111 /
1&
#640000000000000
b1101111010101101 B
0&
1'
#645000000000000
0"
b1111111100000 .
b1110000100000 /
b1110110001001 ,
b1011011001000 -
b1 7
b10000 @
1&
#650000000000000
b110111101010110 B
1$
1A
0&
0'
#655000000000000
b10 7
b1110000000000 /
b1111 @
1%
1&
#660000000000000
b11011110101011 B
0$
0%
0&
1'
#665000000000000
b1111111011111 .
b1101111100000 /
b11 7
b1110 @
1%
1&
#670000000000000
b1101111010101 B
1$
0%
0&
0'
#675000000000000
b100 7
b1101110111111 /
b1101 @
1%
1&
#680000000000000
b110111101010 B
0%
0&
1'
#685000000000000
b1111111011110 .
b1101110011110 /
b101 7
b1100 @
1%
1&
#690000000000000
b11011110101 B
0$
0%
0&
0'
#695000000000000
b110 7
b1101101111100 /
b1011 @
1%
1&
#700000000000000
b1101111010 B
1$
0%
0&
1'
#705000000000000
b1111111011101 .
b1101101011010 /
b111 7
b1010 @
1%
1&
#710000000000000
b110111101 B
0$
0%
0&
0'
#715000000000000
b1000 7
b1101100110111 /
b1001 @
1%
1&
#720000000000000
b11011110 B
1$
0%
0&
1'
#725000000000000
b1111111011100 .
b1101100010100 /
b1001 7
b1000 @
1%
1&
#730000000000000
b1101111 B
0$
0%
0&
0'
#735000000000000
b1010 7
b1101011110000 /
b111 @
1%
1&
#740000000000000
b110111 B
1$
0%
0&
1'
#745000000000000
b1111111011011 .
b1101011001100 /
b1011 7
b110 @
1%
1&
#750000000000000
b11011 B
0%
0&
0'
#755000000000000
b1100 7
b1101010100111 /
b101 @
1%
1&
#760000000000000
b1101 B
0%
0&
1'
#765000000000000
b1111111011010 .
b1101010000010 /
b1101 7
b100 @
1%
1&
#770000000000000
b110 B
0%
0&
0'
#775000000000000
b1110 7
b1101001011100 /
b11 @
1%
1&
#780000000000000
b11 B
0$
0%
0&
1'
#785000000000000
b1111111011001 .
b1101000110110 /
b1111 7
b10 @
1%
1&
#790000000000000
b1 B
1$
0%
0&
0'
#795000000000000
b10000 7
b1101000001111 /
b1 @
1%
1&
#800000000000000
b0 B
0%
0&
1'
#805000000000000
b1111111011000 .
b1100111101000 /
b10001 7
b0 @
1%
1&
#810000000000000
0$
0A
0%
0&
0'
#815000000000000
b10010 7
b1100111000000 /
1&
#820000000000000
0&
1'
#825000000000000
b1111111010111 .
b1100110011000 /
b10011 7
1&
#830000000000000
0&
0'
#835000000000000
b10100 7
b1100101101111 /
1&
#840000000000000
0&
1'
#845000000000000
b1111111010110 .
b1100101000110 /
b10101 7
1&
#850000000000000
0&
0'
#855000000000000
b10110 7
b1100100011100 /
1&
#860000000000000
0&
1'
#865000000000000
b1111111010101 .
b1100011110010 /
b10111 7
1&
#870000000000000
0&
0'
#875000000000000
b11000 7
b1100011000111 /
1&
#880000000000000
0&
1'
#885000000000000
b1111111010100 .
b1100010011100 /
b11001 7
1&
#890000000000000
0&
0'
#895000000000000
b11010 7
b1100001110000 /
1&
#900000000000000
0&
1'
#905000000000000
b1111111010011 .
b1100001000100 /
b11011 7
1&
#910000000000000
0&
0'
#915000000000000
b11100 7
b1100000010111 /
1&
#920000000000000
0&
1'
#925000000000000
b1111111010010 .
b1011111101010 /
b11101 7
1&
#930000000000000
0&
0'
#935000000000000
b11110 7
b1011110111100 /
1&
#940000000000000
0&
1'
#945000000000000
1"
b1111111010001 .
b1011110001110 /
b0 7
1&
#950000000000000
b1101111010101101 B
0&
0'
#955000000000000
0"
b1 7
b1011011001000 #
b1011011001000 0
b1011011001000 ?
b11011000001 -
b101000011010 ,
b1011101011111 /
b10000 @
1&
#960000000000000
1A
b110111101010110 B
1$
0&
1'
#965000000000000
b1111111010000 .
b1011100110000 /
b10 7
b1111 @
1%
1&
#970000000000000
b11011110101011 B
0$
0%
0&
0'
#975000000000000
b11 7
b1011100000000 /
b1110 @
1%
1&
#980000000000000
b1101111010101 B
1$
0%
0&
1'
#985000000000000
b1111111001111 .
b1011011010000 /
b100 7
b1101 @
1%
1&
#990000000000000
b110111101010 B
0%
0&
0'
#995000000000000
b101 7
b1011010011111 /
b1100 @
1%
1&
#1000000000000000
b11011110101 B
0$
0%
0&
1'
#1005000000000000
b1111111001110 .
b1011001101110 /
b110 7
b1011 @
1%
1&
#1010000000000000
b1101111010 B
1$
0%
0&
0'
#1015000000000000
b111 7
b1011000111100 /
b1010 @
1%
1&
#1020000000000000
b110111101 B
0$
0%
0&
1'
#1025000000000000
b1111111001101 .
b1011000001010 /
b1000 7
b1001 @
1%
1&
#1030000000000000
b11011110 B
1$
0%
0&
0'
#1035000000000000
b1001 7
b1010111010111 /
b1000 @
1%
1&
#1040000000000000
b1101111 B
0$
0%
0&
1'
#1045000000000000
b1111111001100 .
b1010110100100 /
b1010 7
b111 @
1%
1&
#1050000000000000
b110111 B
1$
0%
0&
0'
#1055000000000000
b1011 7
b1010101110000 /
b110 @
1%
1&
#1060000000000000
b11011 B
0%
0&
1'
#1065000000000000
b1111111001011 .
b1010100111100 /
b1100 7
b101 @
1%
1&
#1070000000000000
b1101 B
0%
0&
0'
#1075000000000000
b1101 7
b1010100000111 /
b100 @
1%
1&
#1080000000000000
b110 B
0%
0&
1'
#1085000000000000
b1111111001010 .
b1010011010010 /
b1110 7
b11 @
1%
1&
#1090000000000000
b11 B
0$
0%
0&
0'
#1095000000000000
b1111 7
b1010010011100 /
b10 @
1%
1&
#1100000000000000
b1 B
1$
0%
0&
1'
#1105000000000000
b1111111001001 .
b1010001100110 /
b10000 7
b1 @
1%
1&
#1110000000000000
b0 B
0%
0&
0'
#1115000000000000
b10001 7
b1010000101111 /
b0 @
1%
1&
#1120000000000000
0A
0$
0%
0&
1'
#1125000000000000
b1111111001000 .
b1001111111000 /
b10010 7
1&
#1130000000000000
0&
0'
#1135000000000000
b10011 7
b1001111000000 /
1&
#1140000000000000
0&
1'
#1145000000000000
b1111111000111 .
b1001110001000 /
b10100 7
1&
#1150000000000000
0&
0'
#1155000000000000
b10101 7
b1001101001111 /
1&
#1160000000000000
0&
1'
#1165000000000000
b1111111000110 .
b1001100010110 /
b10110 7
1&
#1170000000000000
0&
0'
#1175000000000000
b10111 7
b1001011011100 /
1&
#1180000000000000
0&
1'
#1185000000000000
b1111111000101 .
b1001010100010 /
b11000 7
1&
#1190000000000000
0&
0'
#1195000000000000
b11001 7
b1001001100111 /
1&
#1200000000000000
0&
1'
#1205000000000000
b1111111000100 .
b1001000101100 /
b11010 7
1&
#1210000000000000
0&
0'
#1215000000000000
b11011 7
b1000111110000 /
1&
#1220000000000000
0&
1'
#1225000000000000
b1111111000011 .
b1000110110100 /
b11100 7
1&
#1230000000000000
0&
0'
#1235000000000000
b11101 7
b1000101110111 /
1&
#1240000000000000
0&
1'
#1245000000000000
b1111111000010 .
b1000100111010 /
b11110 7
1&
#1250000000000000
0&
0'
#1255000000000000
1"
b0 7
b1000011111100 /
1&
#1260000000000000
b1101111010101101 B
0&
1'
#1265000000000000
0"
b1111111000001 .
b1000010111110 /
b1110001111100 ,
b110010010001 -
b111111111001 #
b111111111001 0
b111111111001 ?
b1 7
b10000 @
1&
#1270000000000000
b110111101010110 B
1$
1A
0&
0'
#1275000000000000
b10 7
b1000001111111 /
b1111 @
1%
1&
#1280000000000000
b11011110101011 B
0$
0%
0&
1'
#1285000000000000
b1111111000000 .
b1000001000000 /
b11 7
b1110 @
1%
1&
#1290000000000000
b1101111010101 B
1$
0%
0&
0'
#1295000000000000
b100 7
b1000000000000 /
b1101 @
1%
1&
#1300000000000000
b110111101010 B
0%
0&
1'
#1305000000000000
b1111110111111 .
b111111000000 /
b101 7
b1100 @
1%
1&
#1310000000000000
b11011110101 B
0$
0%
0&
0'
#1315000000000000
b110 7
b111101111111 /
b1011 @
1%
1&
#1320000000000000
b1101111010 B
1$
0%
0&
1'
#1325000000000000
b1111110111110 .
b111100111110 /
b111 7
b1010 @
1%
1&
#1330000000000000
b110111101 B
0$
0%
0&
0'
#1335000000000000
b1000 7
b111011111100 /
b1001 @
1%
1&
#1340000000000000
b11011110 B
1$
0%
0&
1'
#1345000000000000
b1111110111101 .
b111010111010 /
b1001 7
b1000 @
1%
1&
#1350000000000000
b1101111 B
0$
0%
0&
0'
#1355000000000000
b1010 7
b111001110111 /
b111 @
1%
1&
#1360000000000000
b110111 B
1$
0%
0&
1'
#1365000000000000
b1111110111100 .
b111000110100 /
b1011 7
b110 @
1%
1&
#1370000000000000
b11011 B
0%
0&
0'
#1375000000000000
b1100 7
b110111110000 /
b101 @
1%
1&
#1380000000000000
b1101 B
0%
0&
1'
#1385000000000000
b1111110111011 .
b110110101100 /
b1101 7
b100 @
1%
1&
#1390000000000000
b110 B
0%
0&
0'
#1395000000000000
b1110 7
b110101100111 /
b11 @
1%
1&
#1400000000000000
b11 B
0$
0%
0&
1'
#1405000000000000
b1111110111010 .
b110100100010 /
b1111 7
b10 @
1%
1&
#1410000000000000
b1 B
1$
0%
0&
0'
#1415000000000000
b10000 7
b110011011100 /
b1 @
1%
1&
#1420000000000000
b0 B
0%
0&
1'
#1425000000000000
b1111110111001 .
b110010010110 /
b10001 7
b0 @
1%
1&
#1430000000000000
0$
0A
0%
0&
0'
#1435000000000000
b10010 7
b110001001111 /
1&
#1440000000000000
0&
1'
#1445000000000000
b1111110111000 .
b110000001000 /
b10011 7
1&
#1450000000000000
0&
0'
#1455000000000000
b10100 7
b101111000000 /
1&
#1460000000000000
0&
1'
#1465000000000000
b1111110110111 .
b101101111000 /
b10101 7
1&
#1470000000000000
0&
0'
#1475000000000000
b10110 7
b101100101111 /
1&
#1480000000000000
0&
1'
#1485000000000000
b1111110110110 .
b101011100110 /
b10111 7
1&
#1490000000000000
0&
0'
#1495000000000000
b11000 7
b101010011100 /
1&
#1500000000000000
0&
1'
#1505000000000000
b1111110110101 .
b101001010010 /
b11001 7
1&
#1510000000000000
0&
0'
#1515000000000000
b11010 7
b101000000111 /
1&
#1520000000000000
0&
1'
#1525000000000000
b1111110110100 .
b100110111100 /
b11011 7
1&
#1530000000000000
0&
0'
#1535000000000000
b11100 7
b100101110000 /
1&
#1540000000000000
0&
1'
#1545000000000000
b1111110110011 .
b100100100100 /
b11101 7
1&
#1550000000000000
0&
0'
#1555000000000000
b11110 7
b100011010111 /
1&
#1560000000000000
0&
1'
#1565000000000000
1"
b1111110110010 .
b100010001010 /
b0 7
1&
#1570000000000000
b1101111010101101 B
0&
0'
#1575000000000000
0"
b1 7
b10111010000 #
b10111010000 0
b10111010000 ?
b1001001100010 -
b1010010101110 ,
b100000111100 /
b10000 @
1&
#1580000000000000
1A
b110111101010110 B
1$
0&
1'
#1585000000000000
b1111110110001 .
b11111101110 /
b10 7
b1111 @
1%
1&
#1590000000000000
b11011110101011 B
0$
0%
0&
0'
#1595000000000000
b11 7
b11110011111 /
b1110 @
1%
1&
#1600000000000000
b1101111010101 B
1$
0%
0&
1'
#1605000000000000
b1111110110000 .
b11101010000 /
b100 7
b1101 @
1%
1&
#1610000000000000
b110111101010 B
0%
0&
0'
#1615000000000000
b101 7
b11100000000 /
b1100 @
1%
1&
#1620000000000000
b11011110101 B
0$
0%
0&
1'
#1625000000000000
b1111110101111 .
b11010110000 /
b110 7
b1011 @
1%
1&
#1630000000000000
b1101111010 B
1$
0%
0&
0'
#1635000000000000
b111 7
b11001011111 /
b1010 @
1%
1&
#1640000000000000
b110111101 B
0$
0%
0&
1'
#1645000000000000
b1111110101110 .
b11000001110 /
b1000 7
b1001 @
1%
1&
#1650000000000000
b11011110 B
1$
0%
0&
0'
#1655000000000000
b1001 7
b10110111100 /
b1000 @
1%
1&
#1660000000000000
b1101111 B
0$
0%
0&
1'
#1665000000000000
b1111110101101 .
b10101101010 /
b1010 7
b111 @
1%
1&
#1670000000000000
b110111 B
1$
0%
0&
0'
#1675000000000000
b1011 7
b10100010111 /
b110 @
1%
1&
#1680000000000000
b11011 B
0%
0&
1'
#1685000000000000
b1111110101100 .
b10011000100 /
b1100 7
b101 @
1%
1&
#1690000000000000
b1101 B
0%
0&
0'
#1695000000000000
b1101 7
b10001110000 /
b100 @
1%
1&
#1700000000000000
b110 B
0%
0&
1'
#1705000000000000
b1111110101011 .
b10000011100 /
b1110 7
b11 @
1%
1&
#1710000000000000
b11 B
0$
0%
0&
0'
#1715000000000000
b1111 7
b1111000111 /
b10 @
1%
1&
#1720000000000000
b1 B
1$
0%
0&
1'
#1725000000000000
b1111110101010 .
b1101110010 /
b10000 7
b1 @
1%
1&
#1730000000000000
b0 B
0%
0&
0'
#1735000000000000
b10001 7
b1100011100 /
b0 @
1%
1&
#1740000000000000
0A
0$
0%
0&
1'
#1745000000000000
b1111110101001 .
b1011000110 /
b10010 7
1&
#1750000000000000
0&
0'
#1755000000000000
b10011 7
b1001101111 /
1&
#1760000000000000
0&
1'
#1765000000000000
b1111110101000 .
b1000011000 /
b10100 7
1&
#1770000000000000
0&
0'
#1775000000000000
b10101 7
b111000000 /
1&
#1780000000000000
0&
1'
#1785000000000000
b1111110100111 .
b101101000 /
b10110 7
1&
#1790000000000000
0&
0'
#1795000000000000
b10111 7
b100001111 /
1&
#1800000000000000
0&
1'
#1805000000000000
b1111110100110 .
b10110110 /
b11000 7
1&
#1810000000000000
0&
0'
#1815000000000000
b11001 7
b1011100 /
1&
#1820000000000000
0&
1'
#1825000000000000
b1111110100101 .
b10 /
b11010 7
1&
#1830000000000000
0&
0'
#1835000000000000
b11011 7
b1111110100111 /
1&
#1840000000000000
0&
1'
#1845000000000000
b1111110100100 .
b1111101001100 /
b11100 7
1&
#1850000000000000
0&
0'
#1855000000000000
b11101 7
b1111011110000 /
1&
#1860000000000000
0&
1'
#1865000000000000
b1111110100011 .
b1111010010100 /
b11110 7
1&
#1870000000000000
0&
0'
#1875000000000000
1"
b0 7
b1111000110111 /
1&
#1880000000000000
b1101111010101101 B
0&
1'
#1885000000000000
0"
b1111110100010 .
b1110111011010 /
b1001010110001 ,
b1100000110010 -
b10111010001 #
b10111010001 0
b10111010001 ?
b1 7
b10000 @
1&
#1890000000000000
b110111101010110 B
1$
1A
0&
0'
#1895000000000000
b10 7
b1110101111100 /
b1111 @
1%
1&
#1900000000000000
b11011110101011 B
0$
0%
0&
1'
#1905000000000000
b1111110100001 .
b1110100011110 /
b11 7
b1110 @
1%
1&
#1910000000000000
b1101111010101 B
1$
0%
0&
0'
#1915000000000000
b100 7
b1110010111111 /
b1101 @
1%
1&
#1920000000000000
b110111101010 B
0%
0&
1'
#1925000000000000
b1111110100000 .
b1110001100000 /
b101 7
b1100 @
1%
1&
#1930000000000000
b11011110101 B
0$
0%
0&
0'
#1935000000000000
b110 7
b1110000000000 /
b1011 @
1%
1&
#1940000000000000
b1101111010 B
1$
0%
0&
1'
#1945000000000000
b1111110011111 .
b1101110100000 /
b111 7
b1010 @
1%
1&
#1950000000000000
b110111101 B
0$
0%
0&
0'
#1955000000000000
b1000 7
b1101100111111 /
b1001 @
1%
1&
#1960000000000000
b11011110 B
1$
0%
0&
1'
#1965000000000000
b1111110011110 .
b1101011011110 /
b1001 7
b1000 @
1%
1&
#1970000000000000
b1101111 B
0$
0%
0&
0'
#1975000000000000
b1010 7
b1101001111100 /
b111 @
1%
1&
#1980000000000000
b110111 B
1$
0%
0&
1'
#1985000000000000
b1111110011101 .
b1101000011010 /
b1011 7
b110 @
1%
1&
#1990000000000000
b11011 B
0%
0&
0'
#1995000000000000
b1100 7
b1100110110111 /
b101 @
1%
1&
#2000000000000000
b1101 B
0%
0&
1'
#2005000000000000
b1111110011100 .
b1100101010100 /
b1101 7
b100 @
1%
1&
#2010000000000000
b110 B
0%
0&
0'
#2015000000000000
b1110 7
b1100011110000 /
b11 @
1%
1&
#2020000000000000
b11 B
0$
0%
0&
1'
#2025000000000000
b1111110011011 .
b1100010001100 /
b1111 7
b10 @
1%
1&
#2030000000000000
b1 B
1$
0%
0&
0'
#2035000000000000
b10000 7
b1100000100111 /
b1 @
1%
1&
#2040000000000000
b0 B
0%
0&
1'
#2045000000000000
b1111110011010 .
b1011111000010 /
b10001 7
b0 @
1%
1&
#2050000000000000
0$
0A
0%
0&
0'
#2055000000000000
b10010 7
b1011101011100 /
1&
#2060000000000000
0&
1'
#2065000000000000
b1111110011001 .
b1011011110110 /
b10011 7
1&
#2070000000000000
0&
0'
#2075000000000000
b10100 7
b1011010001111 /
1&
#2080000000000000
0&
1'
#2085000000000000
b1111110011000 .
b1011000101000 /
b10101 7
1&
#2090000000000000
0&
0'
#2095000000000000
b10110 7
b1010111000000 /
1&
#2100000000000000
0&
1'
#2105000000000000
b1111110010111 .
b1010101011000 /
b10111 7
1&
#2110000000000000
0&
0'
#2115000000000000
b11000 7
b1010011101111 /
1&
#2120000000000000
0&
1'
#2125000000000000
b1111110010110 .
b1010010000110 /
b11001 7
1&
#2130000000000000
0&
0'
#2135000000000000
b11010 7
b1010000011100 /
1&
#2140000000000000
0&
1'
#2145000000000000
b1111110010101 .
b1001110110010 /
b11011 7
1&
#2150000000000000
0&
0'
#2155000000000000
b11100 7
b1001101000111 /
1&
#2160000000000000
0&
1'
#2165000000000000
b1111110010100 .
b1001011011100 /
b11101 7
1&
#2170000000000000
0&
0'
#2175000000000000
b11110 7
b1001001110000 /
1&
#2180000000000000
0&
1'
#2185000000000000
1"
b1111110010011 .
b1001000000100 /
b0 7
1&
#2190000000000000
b1101111010101101 B
0&
0'
#2195000000000000
0"
b1 7
b10111010000 #
b10111010000 0
b10111010000 ?
b1111000000011 -
b1011010000100 ,
b1000110010111 /
b10000 @
1&
#2200000000000000
1A
b110111101010110 B
1$
0&
1'
#2205000000000000
b1111110010010 .
b1000100101010 /
b10 7
b1111 @
1%
1&
#2210000000000000
b11011110101011 B
0$
0%
0&
0'
#2215000000000000
b11 7
b1000010111100 /
b1110 @
1%
1&
#2220000000000000
b1101111010101 B
1$
0%
0&
1'
#2225000000000000
b1111110010001 .
b1000001001110 /
b100 7
b1101 @
1%
1&
#2230000000000000
b110111101010 B
0%
0&
0'
#2235000000000000
b101 7
b111111011111 /
b1100 @
1%
1&
#2240000000000000
b11011110101 B
0$
0%
0&
1'
#2245000000000000
b1111110010000 .
b111101110000 /
b110 7
b1011 @
1%
1&
#2250000000000000
b1101111010 B
1$
0%
0&
0'
#2255000000000000
b111 7
b111100000000 /
b1010 @
1%
1&
#2260000000000000
b110111101 B
0$
0%
0&
1'
#2265000000000000
b1111110001111 .
b111010010000 /
b1000 7
b1001 @
1%
1&
#2270000000000000
b11011110 B
1$
0%
0&
0'
#2275000000000000
b1001 7
b111000011111 /
b1000 @
1%
1&
#2280000000000000
b1101111 B
0$
0%
0&
1'
#2285000000000000
b1111110001110 .
b110110101110 /
b1010 7
b111 @
1%
1&
#2290000000000000
b110111 B
1$
0%
0&
0'
#2295000000000000
b1011 7
b110100111100 /
b110 @
1%
1&
#2300000000000000
b11011 B
0%
0&
1'
#2305000000000000
b1111110001101 .
b110011001010 /
b1100 7
b101 @
1%
1&
#2310000000000000
b1101 B
0%
0&
0'
#2315000000000000
b1101 7
b110001010111 /
b100 @
1%
1&
#2320000000000000
b110 B
0%
0&
1'
#2325000000000000
b1111110001100 .
b101111100100 /
b1110 7
b11 @
1%
1&
#2330000000000000
b11 B
0$
0%
0&
0'
#2335000000000000
b1111 7
b101101110000 /
b10 @
1%
1&
#2340000000000000
b1 B
1$
0%
0&
1'
#2345000000000000
b1111110001011 .
b101011111100 /
b10000 7
b1 @
1%
1&
#2350000000000000
b0 B
0%
0&
0'
#2355000000000000
b10001 7
b101010000111 /
b0 @
1%
1&
#2360000000000000
0A
0$
0%
0&
1'
#2365000000000000
b1111110001010 .
b101000010010 /
b10010 7
1&
#2370000000000000
0&
0'
#2375000000000000
b10011 7
b100110011100 /
1&
#2380000000000000
0&
1'
#2385000000000000
b1111110001001 .
b100100100110 /
b10100 7
1&
#2390000000000000
0&
0'
#2395000000000000
b10101 7
b100010101111 /
1&
#2400000000000000
0&
1'
#2405000000000000
b1111110001000 .
b100000111000 /
b10110 7
1&
#2410000000000000
0&
0'
#2415000000000000
b10111 7
b11111000000 /
1&
#2420000000000000
0&
1'
#2425000000000000
b1111110000111 .
b11101001000 /
b11000 7
1&
#2430000000000000
0&
0'
#2435000000000000
b11001 7
b11011001111 /
1&
#2440000000000000
0&
1'
#2445000000000000
b1111110000110 .
b11001010110 /
b11010 7
1&
#2450000000000000
0&
0'
#2455000000000000
b11011 7
b10111011100 /
1&
#2460000000000000
0&
1'
#2465000000000000
b1111110000101 .
b10101100010 /
b11100 7
1&
#2470000000000000
0&
0'
